{
  "baseUri": "https://api.hallogen.net/",
  "port": 8115,
  "serverName": "hallogen-server",
  "neo4jdb": {
    "server": "http://localhost:7474" 
  }, 
  "leveldbDir": "./leveldb",
  "tokenSecret": "ReplaceMe!!",
  "schemaPath": "../hallogen-org/api/schema"
}